     ______________
    |_  / /__\ \ __|
	|_ /GAME OVER__|
    |_/_/_|__|_\_\_|

                                  _______
 /\  /\  /\  /\  /\  /\  /\  /\ |___|___|
 ||  ||  ||  ||  ||  ||  ||  || |_|___|_|
 ||==||==||==||==||==||==||==||=|___|___|
 ||  ||  ||  ||  ||  ||  ||  || |_|___|_|
 ||==||==||==||==||==||==||==||=|___|___|
_||__||__||__||__||__||__||__||_|_|___|_|
 

         _____________
        |_ __/ /\ __ _|
        |_ GAME OVER _|
        |__/_/__\_\___|

==================================
====  Resumen de la partida  =====
----------------------------------
 Nombre: as
  Salud: [>:::::::::::::::::::] 3%
 Comida: [>:::::::::::::::::::] 0%
Energia: [>:::::::::::::::::::] 0%

 Dias sobrevividos: 20
 Causa de la muerte: Hambre
 
 Conseguido:
 - Perro
